{
    "items":[
      {
        "id": 1,
        "skillName": "React Native",
        "category": "Library",
        "categoryName": "Framework / Library",
        "logoUrl": "",
        "iconType": "MaterialCommunityIcons",
        "iconName": "react",
        "percentageProgress" : "50%" ,
        "percentageProgressBar": 0.5
      },
      {
        "id": 2,
        "skillName": "Laravel",
        "category": "Library",
        "categoryName": "Framework / Library",
        "logoUrl": "",
        "iconType": "MaterialCommunityIcons",
        "iconName": "laravel",
        "percentageProgress" : "100%" ,
        "percentageProgressBar": 1
      },
      {
        "id": 3,
        "skillName": "JavaScript",
        "category": "Language",
        "categoryName": "Bahasa Pemrograman",
        "logoUrl": "",
        "iconType": "MaterialCommunityIcons",
        "iconName": "language-javascript",
        "percentageProgress" : "30%" ,
        "percentageProgressBar": 0.3
      },
      {
        "id": 4,
        "skillName": "Python",
        "category": "Language",
        "categoryName": "Bahasa Pemrograman",
        "logoUrl": "",
        "iconType": "MaterialCommunityIcons",
        "iconName": "language-python",
        "percentageProgress" : "70%" ,
        "percentageProgressBar": 0.7
      },
      {
        "id": 5,
        "skillName": "Git",
        "category": "Technology",
        "categoryName": "Teknologi",
        "logoUrl": "",
        "iconType": "MaterialCommunityIcons",
        "iconName": "git",
        "percentageProgress" : "75%" ,
        "percentageProgressBar": 0.75
      },
      {
        "id": 6,
        "skillName": "Gitlab",
        "category": "Technology",
        "categoryName": "Teknologi",
        "logoUrl": "",
        "iconType": "MaterialCommunityIcons",
        "iconName": "gitlab",
        "percentageProgress" : "60%" ,
        "percentageProgressBar": 0.6
      }
    ]
  }
  